# warns when big.mark equals OutDec

    Code
      update_numbers(fc, big.mark = ".")
    Condition
      Warning:
      You have set `big.mark` equal to your environment's `OutDec` ('.') - it can be confusing if your flowchart uses the same mark for both.
      i Consider an alternative decimal mark.
      > To change the decimal mark, run: `options(OutDec = "<alternative decimal mark>")`
    Output
      $data
      # A tibble: 1,000 x 1
            id
         <int>
       1     1
       2     2
       3     3
       4     4
       5     5
       6     6
       7     7
       8     8
       9     9
      10    10
      # i 990 more rows
…
